{
  "results": [
    {
      "popularity": 456.653,
      "vote_count": 5057,
      "video": false,
      "poster_path": "/udDclJoHjfjb8Ekgsd4FDteOkCU.jpg",
      "id": 475557,
      "adult": false,
      "backdrop_path": "/n6bUvigpRFqSwmPp1m2YADdbRBc.jpg",
      "original_language": "en",
      "original_title": "Joker",
      "genre_ids": [
        80,
        18,
        53
      ],
      "title": "Joker",
      "vote_average": 8.5,
      "overview": "During the 1980s, a failed stand-up comedian is driven insane and turns to a life of crime and chaos in Gotham City while becoming an infamous psychopathic crime figure.",
      "release_date": "2019-10-04"
    },
    {
      "popularity": 327.332,
      "vote_count": 431,
      "video": false,
      "poster_path": "/vqzNJRH4YyquRiWxCCOH0aXggHI.jpg",
      "id": 290859,
      "adult": false,
      "backdrop_path": "/rtf4vjjLZLalpOzDUi0Qd2GTUqq.jpg",
      "original_language": "en",
      "original_title": "Terminator: Dark Fate",
      "genre_ids": [
        28,
        878
      ],
      "title": "Terminator: Dark Fate",
      "vote_average": 6.5,
      "overview": "More than two decades have passed since Sarah Connor prevented Judgment Day, changed the future, and re-wrote the fate of the human race. Dani Ramos is living a simple life in Mexico City with her brother and father when a highly advanced and deadly new Terminator – a Rev-9 – travels back through time to hunt and kill her. Dani's survival depends on her joining forces with two warriors: Grace, an enhanced super-soldier from the future, and a battle-hardened Sarah Connor. As the Rev-9 ruthlessly destroys everything and everyone in its path on the hunt for Dani, the three are led to a T-800 from Sarah’s past that may be their last best hope.",
      "release_date": "2019-11-01"
    },
    {
      "popularity": 197.485,
      "vote_count": 755,
      "video": false,
      "poster_path": "/tBuabjEqxzoUBHfbyNbd8ulgy5j.jpg",
      "id": 420809,
      "adult": false,
      "backdrop_path": "/skvI4rYFrKXS73BJxWGH54Omlvv.jpg",
      "original_language": "en",
      "original_title": "Maleficent: Mistress of Evil",
      "genre_ids": [
        12,
        14,
        10751
      ],
      "title": "Maleficent: Mistress of Evil",
      "vote_average": 7.2,
      "overview": "Maleficent and her goddaughter Aurora begin to question the complex family ties that bind them as they are pulled in different directions by impending nuptials, unexpected allies, and dark new forces at play.",
      "release_date": "2019-10-18"
    },
    {
      "popularity": 155.195,
      "vote_count": 79,
      "video": false,
      "poster_path": "/4E2lyUGLEr3yH4q6kJxPkQUhX7n.jpg",
      "id": 568012,
      "adult": false,
      "backdrop_path": "/iGnCzXEx0cFlUbpyAMeHwHWhPhx.jpg",
      "original_language": "ja",
      "original_title": "ワンピーススタンピード",
      "genre_ids": [
        28,
        12,
        16
      ],
      "title": "One Piece: Stampede",
      "vote_average": 7.4,
      "overview": "One Piece: Stampede is a stand-alone film that celebrates the anime's 20th Anniversary and takes place outside the canon of the \"One Piece\" TV series. Monkey D. Luffy and his Straw Hat pirate crew are invited to a massive Pirate Festival that brings many of the most iconic characters from throughout the franchise to participate in competition with the Straw Hats to find Roger's treasure. It also pits the Straw Hats against a new enemy named Bullet, a former member of Roger's crew.",
      "release_date": "2019-10-24"
    },
    {
      "popularity": 127.085,
      "vote_count": 233,
      "video": false,
      "poster_path": "/p69QzIBbN06aTYqRRiCOY1emNBh.jpg",
      "id": 501170,
      "adult": false,
      "backdrop_path": "/1nm0sk8UUx9jHCTHuMKe2jkt4Pn.jpg",
      "original_language": "en",
      "original_title": "Doctor Sleep",
      "genre_ids": [
        27
      ],
      "title": "Doctor Sleep",
      "vote_average": 7,
      "overview": "A traumatized, alcoholic Dan Torrance meets Abra, a kid who also has the ability to \"shine.\" He tries to protect her from the True Knot, a cult whose goal is to feed off of people like them in order to remain immortal.",
      "release_date": "2019-11-08"
    },
    {
      "popularity": 111.18,
      "vote_count": 19,
      "video": false,
      "poster_path": "/qdfARIhgpgZOBh3vfNhWS4hmSo3.jpg",
      "id": 330457,
      "adult": false,
      "backdrop_path": "/xJWPZIYOEFIjZpBL7SVBGnzRYXp.jpg",
      "original_language": "en",
      "original_title": "Frozen II",
      "genre_ids": [
        12,
        16,
        35,
        14,
        10402,
        10751
      ],
      "title": "Frozen II",
      "vote_average": 7,
      "overview": "Elsa, Anna, Kristoff and Olaf are going far in the forest to know the truth about an ancient mystery of their kingdom.",
      "release_date": "2019-11-22"
    },
    {
      "popularity": 111.631,
      "vote_count": 365,
      "video": false,
      "poster_path": "/8u0QBGUbZcBW59VEAdmeFl9g98N.jpg",
      "id": 504949,
      "adult": false,
      "backdrop_path": "/oMAhce30UvkgJwlzMwsuLaPJ5cG.jpg",
      "original_language": "en",
      "original_title": "The King",
      "genre_ids": [
        18,
        36,
        10752
      ],
      "title": "The King",
      "vote_average": 7.3,
      "overview": "England, 15th century. Hal, a capricious prince who lives among the populace far from court, is forced by circumstances to reluctantly accept the throne and become Henry V.",
      "release_date": "2019-10-11"
    },
    {
      "popularity": 98.357,
      "vote_count": 229,
      "video": false,
      "poster_path": "/xvYCZ740XvngXK0FNeSNVTJJJ5v.jpg",
      "id": 499701,
      "adult": false,
      "backdrop_path": "/61sbyO47yIpsMFyLhY1MWcqjg1Q.jpg",
      "original_language": "en",
      "original_title": "Dora and the Lost City of Gold",
      "genre_ids": [
        12,
        35,
        10751
      ],
      "title": "Dora and the Lost City of Gold",
      "vote_average": 6.5,
      "overview": "Dora, a girl who has spent most of her life exploring the jungle with her parents, now must navigate her most dangerous adventure yet: high school. Always the explorer, Dora quickly finds herself leading Boots (her best friend, a monkey), Diego, and a rag tag group of teens on an adventure to save her parents and solve the impossible mystery behind a lost Inca civilization.",
      "release_date": "2019-08-09"
    },
    {
      "popularity": 93.622,
      "vote_count": 188,
      "video": false,
      "poster_path": "/g4z7mDmJmx23vsVg6XNWcnXb6gc.jpg",
      "id": 480105,
      "adult": false,
      "backdrop_path": "/3uG3aOhEzFCjcQulsJQiAzLSrw8.jpg",
      "original_language": "en",
      "original_title": "47 Meters Down: Uncaged",
      "genre_ids": [
        12,
        27,
        53
      ],
      "title": "47 Meters Down: Uncaged",
      "vote_average": 5,
      "overview": "A group of backpackers diving in a ruined underwater city discover that they have stumbled into the territory of the ocean's deadliest shark species.",
      "release_date": "2019-08-16"
    },
    {
      "popularity": 108.676,
      "vote_count": 1342,
      "video": false,
      "poster_path": "/ePXuKdXZuJx8hHMNr2yM4jY2L7Z.jpg",
      "id": 559969,
      "adult": false,
      "backdrop_path": "/ijiE9WoGSwSzM16zTxvUneJ8RXc.jpg",
      "original_language": "en",
      "original_title": "El Camino: A Breaking Bad Movie",
      "genre_ids": [
        80,
        18,
        53
      ],
      "title": "El Camino: A Breaking Bad Movie",
      "vote_average": 7.1,
      "overview": "In the wake of his dramatic escape from captivity, Jesse Pinkman must come to terms with his past in order to forge some kind of future.",
      "release_date": "2019-10-11"
    },
    {
      "popularity": 81.869,
      "vote_count": 316,
      "video": false,
      "poster_path": "/pIcV8XXIIvJCbtPoxF9qHMKdRr2.jpg",
      "id": 338967,
      "adult": false,
      "backdrop_path": "/jCCdt0e8Xe9ttvevD4S3TSMNdH.jpg",
      "original_language": "en",
      "original_title": "Zombieland: Double Tap",
      "genre_ids": [
        28,
        35,
        27
      ],
      "title": "Zombieland: Double Tap",
      "vote_average": 7.4,
      "overview": "Columbus, Tallahassee, Wichita, and Little Rock move to the American heartland as they face off against evolved zombies, fellow survivors, and the growing pains of the snarky makeshift family.",
      "release_date": "2019-10-18"
    },
    {
      "popularity": 90.325,
      "vote_count": 348,
      "video": false,
      "poster_path": "/tximyCXMEnWIIyOy9STkOduUprG.jpg",
      "id": 521777,
      "adult": false,
      "backdrop_path": "/zIZv4pPJRg3YTnWWuotwXnYu1fM.jpg",
      "original_language": "en",
      "original_title": "Good Boys",
      "genre_ids": [
        35
      ],
      "title": "Good Boys",
      "vote_average": 6.6,
      "overview": "A group of young boys on the cusp of becoming teenagers embark on an epic quest to fix their broken drone before their parents get home.",
      "release_date": "2019-08-16"
    },
    {
      "popularity": 90.518,
      "vote_count": 503,
      "video": false,
      "poster_path": "/uTALxjQU8e1lhmNjP9nnJ3t2pRU.jpg",
      "id": 453405,
      "adult": false,
      "backdrop_path": "/c3F4P2oauA7IQmy4hM0OmRt2W7d.jpg",
      "original_language": "en",
      "original_title": "Gemini Man",
      "genre_ids": [
        28,
        18
      ],
      "title": "Gemini Man",
      "vote_average": 5.7,
      "overview": "Henry Brogen, an aging assassin tries to get out of the business but finds himself in the ultimate battle: fighting his own clone who is 25 years younger than him and at the peak of his abilities.",
      "release_date": "2019-10-11"
    },
    {
      "popularity": 85.725,
      "vote_count": 1898,
      "video": false,
      "poster_path": "/zfE0R94v1E8cuKAerbskfD3VfUt.jpg",
      "id": 474350,
      "adult": false,
      "backdrop_path": "/8moTOzunF7p40oR5XhlDvJckOSW.jpg",
      "original_language": "en",
      "original_title": "It Chapter Two",
      "genre_ids": [
        27
      ],
      "title": "It Chapter Two",
      "vote_average": 6.9,
      "overview": "27 years after overcoming the malevolent supernatural entity Pennywise, the former members of the Losers' Club, who have grown up and moved away from Derry, are brought back together by a devastating phone call.",
      "release_date": "2019-09-06"
    },
    {
      "popularity": 65.321,
      "vote_count": 25,
      "video": false,
      "poster_path": "/xL1yNzwGSXfassYpt13hXADpz6R.jpg",
      "id": 522162,
      "adult": false,
      "backdrop_path": "/1ZSjrBUHP2jm1QlQEyLGufL289q.jpg",
      "original_language": "en",
      "original_title": "Midway",
      "genre_ids": [
        28,
        18,
        36,
        10752
      ],
      "title": "Midway",
      "vote_average": 5.6,
      "overview": "The story of the soldiers and aviators who helped turn the tide of the Second World War during the iconic Battle of Midway in June 1942.",
      "release_date": "2019-11-08"
    },
    {
      "popularity": 62.192,
      "vote_count": 54,
      "video": false,
      "poster_path": "/tXTccijjTnpXWFEMaHC1gp59cNc.jpg",
      "id": 295151,
      "adult": false,
      "backdrop_path": "/9REB0BCTk2RueTj5PuELYRYJN5e.jpg",
      "original_language": "en",
      "original_title": "Let It Snow",
      "genre_ids": [
        35,
        10749
      ],
      "title": "Let It Snow",
      "vote_average": 6.6,
      "overview": "When a huge blizzard (that doesn't show signs of stopping) hits, Gracetown is completely snowed in. But even though it's cold outside, things are heating up inside, proving that Christmas is magical when it comes to love.",
      "release_date": "2019-11-08"
    },
    {
      "popularity": 66.825,
      "vote_count": 3145,
      "video": false,
      "poster_path": "/ziEuG1essDuWuC5lpWUaw1uXY2O.jpg",
      "id": 458156,
      "adult": false,
      "backdrop_path": "/stemLQMLDrlpfIlZ5OjllOPT8QX.jpg",
      "original_language": "en",
      "original_title": "John Wick: Chapter 3 - Parabellum",
      "genre_ids": [
        28,
        80,
        53
      ],
      "title": "John Wick: Chapter 3 - Parabellum",
      "vote_average": 7.1,
      "overview": "Super-assassin John Wick returns with a $14 million price tag on his head and an army of bounty-hunting killers on his trail. After killing a member of the shadowy international assassin’s guild, the High Table, John Wick is excommunicado, but the world’s most ruthless hit men and women await his every turn.",
      "release_date": "2019-05-17"
    },
    {
      "popularity": 60.391,
      "vote_count": 12,
      "video": false,
      "poster_path": "/jIbTPKCRWgmS2HaafKXeRaPHMGp.jpg",
      "id": 549053,
      "adult": false,
      "backdrop_path": "/vQYwarUtaeyDYgwmcaTJYX1yix2.jpg",
      "original_language": "en",
      "original_title": "Last Christmas",
      "genre_ids": [
        35,
        18,
        10749
      ],
      "title": "Last Christmas",
      "vote_average": 6.6,
      "overview": "Kate is a young woman subscribed to bad decisions. Her last date with disaster? That of having accepted to work as Santa's elf for a department store. However, she meets Tom there. Her life takes a new turn. For Kate, it seems too good to be true.",
      "release_date": "2019-11-08"
    },
    {
      "popularity": 71.249,
      "vote_count": 705,
      "video": false,
      "poster_path": "/fgGzTEoNxptCRtEOpOPvIEdlxAq.jpg",
      "id": 535581,
      "adult": false,
      "backdrop_path": "/cXyfAViYly0Lk2CVpEKgYbt9wKQ.jpg",
      "original_language": "en",
      "original_title": "The Dead Don't Die",
      "genre_ids": [
        35,
        14,
        27
      ],
      "title": "The Dead Don't Die",
      "vote_average": 5.5,
      "overview": "In a small peaceful town, zombies suddenly rise to terrorize the town. Now three bespectacled police officers and a strange Scottish morgue expert must band together to defeat the undead.",
      "release_date": "2019-06-14"
    },
    {
      "popularity": 64.774,
      "vote_count": 1084,
      "video": false,
      "poster_path": "/7IiTTgloJzvGI1TAYymCfbfl3vT.jpg",
      "id": 496243,
      "adult": false,
      "backdrop_path": "/TU9NIjwzjoKPwQHoHshkFcQUCG.jpg",
      "original_language": "ko",
      "original_title": "기생충",
      "genre_ids": [
        35,
        18,
        53
      ],
      "title": "Parasite",
      "vote_average": 8.5,
      "overview": "All unemployed, Ki-taek's family takes peculiar interest in the wealthy and glamorous Parks for their livelihood until they get entangled in an unexpected incident.",
      "release_date": "2019-10-11"
    }
  ],
  "page": 1,
  "total_results": 1382,
  "dates": {
    "maximum": "2019-11-15",
    "minimum": "2019-09-28"
  },
  "total_pages": 70
}